n,f(n)=n,f(n)=log(n),f(n)=n*log(n),f(n)=n^2,f(n)=2^n,f(n)=n!
0,0.00,-inf,-nan(ind),0.00,1.00,1
1,1.00,0.00,0.00,1.00,2.00,1
2,2.00,0.69,1.39,4.00,4.00,2
3,3.00,1.10,3.30,9.00,8.00,6
4,4.00,1.39,5.55,16.00,16.00,24
5,5.00,1.61,8.05,25.00,32.00,120
6,6.00,1.79,10.75,36.00,64.00,720
7,7.00,1.95,13.62,49.00,128.00,5040
8,8.00,2.08,16.64,64.00,256.00,40320
9,9.00,2.20,19.78,81.00,512.00,362880
10,10.00,2.30,23.03,100.00,1024.00,3628800
11,11.00,2.40,26.38,121.00,2048.00,39916800
12,12.00,2.48,29.82,144.00,4096.00,479001600
13,13.00,2.56,33.34,169.00,8192.00,6227020800
14,14.00,2.64,36.95,196.00,16384.00,87178291200
15,15.00,2.71,40.62,225.00,32768.00,1307674368000
16,16.00,2.77,44.36,256.00,65536.00,20922789888000
17,17.00,2.83,48.16,289.00,131072.00,355687428096000
18,18.00,2.89,52.03,324.00,262144.00,6402373705727999
19,19.00,2.94,55.94,361.00,524288.00,121645100408832000
20,20.00,3.00,59.91,400.00,1048576.00,2432902008176640000
21,21.00,3.04,63.93,441.00,2097152.00,51090942171709448192
22,22.00,3.09,68.00,484.00,4194304.00,1124000727777607286784
23,23.00,3.14,72.12,529.00,8388608.00,25852016738884978212864
24,24.00,3.18,76.27,576.00,16777216.00,620448401733239409999872
25,25.00,3.22,80.47,625.00,33554432.00,15511210043330986055303168
26,26.00,3.26,84.71,676.00,67108864.00,403291461126605719042260992
27,27.00,3.30,88.99,729.00,134217728.00,10888869450418351940239884288
28,28.00,3.33,93.30,784.00,268435456.00,304888344611713942287646982144
29,29.00,3.37,97.65,841.00,536870912.00,8841761993739703024519995195392
30,30.00,3.40,102.04,900.00,1073741824.00,265252859812190996160007681081344
31,31.00,3.43,106.45,961.00,2147483648.00,8222838654177923583120014535819264
32,32.00,3.47,110.90,1024.00,4294967296.00,263130836933693554659840465146216448
33,33.00,3.50,115.38,1089.00,8589934592.00,8683317618811885938715673895318323200
34,34.00,3.53,119.90,1156.00,17179869184.00,295232799039604195113013396920323801088
35,35.00,3.56,124.44,1225.00,34359738368.00,10333147966386140595431711504279650959360
36,36.00,3.58,129.01,1296.00,68719476736.00,371993326789901332234925207831002568720384
37,37.00,3.61,133.60,1369.00,137438953472.00,13763753091226348054752193404366820143529984
38,38.00,3.64,138.23,1444.00,274877906944.00,523022617466601275598184920781150161419108352
39,39.00,3.66,142.88,1521.00,549755813888.00,20397882081197446658430873854155690147131162624
40,40.00,3.69,147.56,1600.00,1099511627776.00,815915283247897683795548521301193790359984930816
41,41.00,3.71,152.26,1681.00,2199023255552.00,33452526613163792379393896694706600861674579689472
42,42.00,3.74,156.98,1764.00,4398046511104.00,1405006117752879622626136324476300719203090075484160
43,43.00,3.76,161.73,1849.00,8796093022208.00,60415263063373876609736694402886878852063519389515776
44,44.00,3.78,166.50,1936.00,17592186044416.00,2658271574788448529134213028096241889243150262529425408
45,45.00,3.81,171.30,2025.00,35184372088832.00,119622220865480188574992723157469373503186265858579103744
46,46.00,3.83,176.12,2116.00,70368744177664.00,5502622159812090547363812798088894083560407533946874626048
47,47.00,3.85,180.96,2209.00,140737488355328.00,258623241511168133072000609591750743480888654529514824531968
48,48.00,3.87,185.82,2304.00,281474976710656.00,12413915592536071101079875613383976216225640142164279768907776
49,49.00,3.89,190.70,2401.00,562949953421312.00,608281864034267613832453941298164010899079586870107119506423808
50,50.00,3.91,195.60,2500.00,1125899906842624.00,30414093201713381422373515730359659646796395701646865803287461888
